{
    "/dashboard/css/vendor.min.css": "/dashboard/css/vendor.min.css",
    "/website/css/vendor.min.css": "/website/css/vendor.min.css",
    "/dashboard/js/vendor.min.js": "/dashboard/js/vendor.min.js",
    "/website/js/vendor.min.js": "/website/js/vendor.min.js"
}
